1. INTRODUCTION
…
tweet_words <- campaign_tweets %>% 
  mutate(text = str_replace_all(text, "https://t.co/[A-Za-z\\d]+|&amp;", ""))  %>%
  unnest_tokens(word, text, token = "regex", pattern = pattern) %>%
  filter(!word %in% stop_words$word &
           !str_detect(word, "^\\d+$")) %>%
  mutate(word = str_replace(word, "^'", ""))

android_iphone_or <- tweet_words %>%
  count(word, source) %>% spread(source, n, fill = 0) %>%
  mutate(or = (Android + 0.5) / (sum(Android) - Android + 0.5) / 
           ( (iPhone + 0.5) / (sum(iPhone) - iPhone + 0.5)))

android_iphone_or %>% filter(Android+iPhone > 100) %>% arrange(desc(or))

## # A tibble: 30 x 4
##    word        Android iPhone    or
##    <chr>         <dbl>  <dbl> <dbl>
##  1 @cnn            104     18  4.95
##  2 bad             104     26  3.45
##  3 crooked         157     49  2.79
##  4 ted              85     28  2.62
##  5 interviewed      76     25  2.62
##  6 media            77     26  2.56
##  7 cruz            116     46  2.19
##  8 hillary         290    119  2.14
##  9 win              74     30  2.14
## 10 president        84     35  2.08
## # ... with 20 more rows

android_iphone_or %>% filter(Android+iPhone > 100) %>% arrange(or)

## # A tibble: 30 x 4
##    word                   Android iPhone      or
##    <chr>                    <dbl>  <dbl>   <dbl>
##  1 #makeamericagreatagain       0    296 0.00144
##  2 #trump2016                   3    412 0.00718
##  3 join                         1    157 0.00821
##  4 tomorrow                    25    101 0.218  
##  5 vote                        46     67 0.600  
##  6 america                    114    141 0.703  
##  7 tonight                     71     84 0.737  
##  8 iowa                        62     65 0.831  
##  9 poll                       117    103 0.990  
## 10 trump                      112     92 1.06   
## # ... with 20 more rows
…
